^H:\C++ STUFF\WEEK 5 LAB\WEEK 5 LAB\DEBUG\STDAFX.OBJ|H:\C++ STUFF\WEEK 5 LAB\WEEK 5 LAB\DEBUG\WEEK 5 LAB.EXE.EMBED.MANIFEST.RES|H:\C++ STUFF\WEEK 5 LAB\WEEK 5 LAB\DEBUG\WEEK 5 LAB.OBJ
H:\C++ STUFF\WEEK 5 LAB\DEBUG\WEEK 5 LAB.ILK
H:\C++ STUFF\WEEK 5 LAB\DEBUG\WEEK 5 LAB.EXE
H:\C++ STUFF\WEEK 5 LAB\WEEK 5 LAB\DEBUG\WEEK 5 LAB.EXE.INTERMEDIATE.MANIFEST
H:\C++ STUFF\WEEK 5 LAB\DEBUG\WEEK 5 LAB.PDB
